COMPSCIX 415.2 Homework 5/Midterm
…
2.Create a new column in the diamonds data set called price_per_carat that shows the price of each diamond per carat (hint: divide). Only show me the code, not the output.

  data("diamonds")

  diamonds %>%
  mutate(price_per_carat = (price/carat))  %>%
  arrange(-price_per_carat)

## # A tibble: 53,940 x 11
##    carat cut       color clarity depth table price     x     y     z
##    <dbl> <ord>     <ord> <ord>   <dbl> <dbl> <int> <dbl> <dbl> <dbl>
##  1  1.04 Very Good D     IF       61.3  56.0 18542  6.53  6.55  4.01
##  2  1.07 Premium   D     IF       60.9  58.0 18279  6.67  6.57  4.03
##  3  1.03 Ideal     D     IF       62.0  56.0 17590  6.55  6.44  4.03
##  4  1.07 Very Good D     IF       60.9  58.0 18114  6.57  6.67  4.03
##  5  1.02 Very Good D     IF       61.7  59.0 17100  6.42  6.52  3.99
##  6  1.07 Very Good D     IF       59.0  59.0 17909  6.63  6.72  3.94
##  7  1.09 Very Good D     IF       61.7  58.0 18231  6.55  6.65  4.07
##  8  1.00 Ideal     D     IF       60.7  57.0 16469  6.44  6.48  3.92
##  9  1.01 Premium   D     IF       61.6  56.0 16234  6.46  6.43  3.97
## 10  1.00 Very Good D     IF       63.3  59.0 16073  6.37  6.33  4.02
## # ... with 53,930 more rows, and 1 more variable: price_per_carat <dbl>
…
 txhousing %>%
  summarise(num_cities = n_distinct(city))

## # A tibble: 1 x 1
##   num_cities
##        <int>
## 1         46

#Question 3
txhousing %>%
select(city,year,month,sales) %>%
 arrange(-sales)

## # A tibble: 8,602 x 4
##    city     year month sales
##    <chr>   <int> <int> <dbl>
##  1 Houston  2015     7  8945
##  2 Houston  2006     6  8628
##  3 Houston  2013     7  8468
##  4 Houston  2015     6  8449
##  5 Houston  2013     5  8439
##  6 Houston  2014     6  8391
##  7 Houston  2014     7  8391
##  8 Houston  2014     8  8167
##  9 Houston  2013     8  8155
## 10 Houston  2006     5  8040
## # ... with 8,592 more rows
…
#Question 5
missing_city <- txhousing %>%
mutate(missing= (is.na(sales)))%>% 
select(city, missing)  
  
missing_city %>%
group_by(city) %>%
summarize(missing_sum = mean(missing))%>%
arrange(-missing_sum)

## # A tibble: 46 x 2
##    city               missing_sum
##    <chr>                    <dbl>
##  1 South Padre Island      0.620 
##  2 Kerrville               0.556 
##  3 Midland                 0.401 
##  4 Odessa                  0.385 
##  5 San Marcos              0.246 
##  6 Laredo                  0.193 
##  7 Harlingen               0.134 
##  8 Waco                    0.102 
##  9 Texarkana               0.0909
## 10 Brazoria County         0.0749
## # ... with 36 more rows
…
